
real	0m0.166s
user	0m0.228s
sys	0m0.048s

real	0m0.166s
user	0m0.240s
sys	0m0.020s

real	0m0.156s
user	0m0.224s
sys	0m0.028s

real	0m0.154s
user	0m0.224s
sys	0m0.028s

real	0m0.162s
user	0m0.260s
sys	0m0.020s

real	0m0.153s
user	0m0.236s
sys	0m0.012s

real	0m0.161s
user	0m0.236s
sys	0m0.028s

real	0m0.156s
user	0m0.220s
sys	0m0.032s

real	0m0.156s
user	0m0.232s
sys	0m0.020s

real	0m0.173s
user	0m0.240s
sys	0m0.032s
