
real	0m4.484s
user	0m5.544s
sys	0m0.252s

real	0m4.686s
user	0m5.368s
sys	0m0.288s

real	0m4.333s
user	0m5.376s
sys	0m0.296s

real	0m4.785s
user	0m5.436s
sys	0m0.336s

real	0m4.372s
user	0m5.168s
sys	0m0.304s

real	0m4.686s
user	0m5.380s
sys	0m0.340s

real	0m4.374s
user	0m5.448s
sys	0m0.260s

real	0m4.843s
user	0m5.584s
sys	0m0.280s

real	0m4.359s
user	0m5.404s
sys	0m0.256s

real	0m4.622s
user	0m5.404s
sys	0m0.284s
