
real	0m1.643s
user	0m2.028s
sys	0m0.268s

real	0m1.986s
user	0m1.996s
sys	0m0.240s

real	0m1.672s
user	0m2.176s
sys	0m0.228s

real	0m1.705s
user	0m2.056s
sys	0m0.228s

real	0m1.940s
user	0m2.080s
sys	0m0.260s

real	0m1.630s
user	0m2.036s
sys	0m0.264s

real	0m1.645s
user	0m1.992s
sys	0m0.264s

real	0m1.992s
user	0m1.904s
sys	0m0.240s

real	0m1.627s
user	0m1.980s
sys	0m0.268s

real	0m1.672s
user	0m2.032s
sys	0m0.276s
