
real	0m0.156s
user	0m0.248s
sys	0m0.016s

real	0m0.162s
user	0m0.248s
sys	0m0.020s

real	0m0.158s
user	0m0.236s
sys	0m0.032s

real	0m0.159s
user	0m0.252s
sys	0m0.016s

real	0m0.164s
user	0m0.252s
sys	0m0.020s

real	0m0.160s
user	0m0.252s
sys	0m0.016s

real	0m0.163s
user	0m0.236s
sys	0m0.032s

real	0m0.160s
user	0m0.236s
sys	0m0.032s

real	0m0.162s
user	0m0.260s
sys	0m0.016s

real	0m0.155s
user	0m0.232s
sys	0m0.032s
