
real	0m0.268s
user	0m0.340s
sys	0m0.056s

real	0m0.316s
user	0m0.432s
sys	0m0.060s

real	0m0.315s
user	0m0.436s
sys	0m0.048s

real	0m0.265s
user	0m0.336s
sys	0m0.064s

real	0m0.265s
user	0m0.352s
sys	0m0.052s

real	0m0.307s
user	0m0.400s
sys	0m0.044s

real	0m0.328s
user	0m0.480s
sys	0m0.048s

real	0m0.270s
user	0m0.340s
sys	0m0.060s

real	0m0.317s
user	0m0.432s
sys	0m0.052s

real	0m0.390s
user	0m0.524s
sys	0m0.056s
