
real	0m0.353s
user	0m0.436s
sys	0m0.084s

real	0m0.345s
user	0m0.488s
sys	0m0.044s

real	0m0.267s
user	0m0.348s
sys	0m0.060s

real	0m0.318s
user	0m0.404s
sys	0m0.060s

real	0m0.220s
user	0m0.260s
sys	0m0.056s

real	0m0.265s
user	0m0.324s
sys	0m0.060s

real	0m0.257s
user	0m0.348s
sys	0m0.048s

real	0m0.275s
user	0m0.384s
sys	0m0.048s

real	0m0.266s
user	0m0.340s
sys	0m0.056s

real	0m0.316s
user	0m0.456s
sys	0m0.044s
